<?xml version="1.0" encoding="utf-8"?>
<!-- Generator: Adobe Illustrator 25.0.0, SVG Export Plug-In . SVG Version: 6.00 Build 0)  -->
<svg version="1.1" id="Layer_1" xmlns="http://www.w3.org/2000/svg" xmlns:xlink="http://www.w3.org/1999/xlink" x="0px" y="0px"
	 viewBox="0 0 229.2 89.8" style="enable-background:new 0 0 229.2 89.8;" xml:space="preserve">
<style type="text/css">
	.st0{fill:#FFFFFF;}
	.st1{fill:#FFFFFF;stroke:#FFFFFF;stroke-width:0.3983;stroke-miterlimit:10;}
	.st2{fill:none;stroke:#FFFFFF;stroke-width:1.0822;}
	.st3{fill:none;stroke:#FFFFFF;stroke-width:0.2705;}
	.st4{fill:none;}
	.st5{fill:#DCDDDE;}
</style>
<path class="st0" d="M60.9,29.2c0.4,3.7,2,7.7,6.5,7.7c4.2,0,6.2-3.3,6.2-5.8c0-7.8-13.5-5.5-13.5-14.5c0-5.1,3.5-8.2,8.6-8.2
	c2.3,0,5,1.7,5.3,1.7c0.3,0,0.9-0.3,1.7-0.7l0.6,0.2c-0.1,2.3-0.2,4.5-0.2,6.7h-1c-0.4-3.6-2.1-6.8-6.1-6.8c-3.7,0-5.6,2.5-5.6,5.6
	c0,6.8,13.8,4.7,13.8,14.2c0,5.3-4.1,8.6-9.1,8.6c-3.4,0-5.3-1.4-6.3-1.4c-0.4,0-0.9,0.3-1.5,0.6l-0.4-0.2c0-1.3,0.1-2.7,0.1-4.1
	c0-1.2-0.1-2.5-0.2-3.8H60.9z"/>
<path class="st0" d="M92.6,21l-5.9,0.2l-0.3,10c-0.1,3.5,1.1,5.2,3.8,5.2c1.3,0,2.1-0.5,2.7-0.9l0.1,0.3C92,37,90.3,38,88.1,38
	c-3.2,0-5-2.4-4.9-5.7l0.3-10.9l-2.8,0.1v-1.5l2.9-0.1l0.3-7.2h3.2l-0.3,7l5.8-0.2V21z"/>
<path class="st0" d="M98.7,33.3c1.1,0,2,0.9,2,2.3c0,1.3-0.9,2.3-2,2.3c-1.1,0-2-0.9-2-2.3C96.7,34.3,97.6,33.3,98.7,33.3z"/>
<path class="st0" d="M148,33.6c0,2.2,0.4,2.4,3.3,2.6v1.1h-6.9c-1.7,0-2.6,0-3.1,0.1c-0.5,0-0.6,0.1-0.8,0.1v-1.2l2.5-0.6
	c0.5-0.1,0.8-2.6,0.8-4.8V14c0-0.3-0.2-0.3-0.3-0.3s-0.2,0-0.3,0.2l-9.8,23.5h-0.5l-10.6-22.3h-0.1v17.4c0,1.5,0,3,0.4,3.1l3.3,0.5
	v1.2c-0.9,0-2.3-0.1-4.1-0.1c-1.8,0-2.8,0-3.4,0.1c-0.6,0-0.7,0.1-0.9,0.1v-1.4c2.9-0.2,3.5-1,3.5-3.8V14c0-2.8-1-4.1-3.5-4.2V8.6
	c1,0.3,2.4,0.3,3.5,0.4c1.2,0.1,2,0.1,3.4,0.1l10,22l9.5-22.1c0.3,0,0.8,0.1,1.2,0.1c2.6,0,4.7-0.3,6-0.4v1.2
	c-2.4,0.2-3.2,0.4-3.2,1.8V33.6z"/>
<path class="st0" d="M165,30.7c0,3.1-1.3,5.6-4.4,5.6c-2,0-3-1.3-3-3.1c0-3.9,4.1-5,7.5-5.4V30.7z M168.3,24.6
	c0-3.5-1.8-6.1-5.9-6.1c-3,0-7.3,1.7-7.3,5.1c0,1,0.5,1.8,1.4,1.8c1,0,1.8-0.7,1.8-2.2c0-1.4-0.7-2.2-0.7-2.4c0-0.3,1.5-1.5,3.8-1.5
	c2.6,0,3.7,1.5,3.7,3v4c0,0.5-0.3,0.7-0.6,0.8c-5.1,0.9-10.2,2.1-10.2,6.2c0,2.8,1.6,4.5,4.9,4.5c2.6,0,4.6-2,5.7-3.5h0.1
	c0,1.9,1,3.5,3.2,3.5c2.2,0,3.6-1.9,3.6-2.7c0-0.2-0.1-0.3-0.4-0.3c-0.5,0-1.3,0.4-2.4,0.4c-0.5,0-0.7-0.2-0.7-0.8V24.6z"/>
<path class="st0" d="M173.6,36.5l2.4-0.2c0.6,0,0.8-0.6,0.8-1.3V23.6c0-2-0.3-2.6-0.8-2.6l-2.2-0.1v-1.2c1.4,0,4.2-0.4,5.2-0.4
	c0.5,0,0.9,0.8,0.9,1.8l0.1,2.1h0.1c1.1-1.8,2.8-4.6,5.5-4.6c1.2,0,1.9,0.6,2.5,1.5c-0.4,1-0.9,2.8-1.6,2.8c-1.2,0-2.1-1.8-3.3-1.8
	c-1.1,0-3.3,2.5-3.3,6.1V33c0,1.4,0,2.4,0.1,3.2l3.1,0.2v0.8h-1.5c-2.7,0-5.4,0-8.1,0.1V36.5z"/>
<path class="st0" d="M197.9,19.2v1c-1.5,0-2,0.2-2,0.5c0,0.1,0.2,0.7,0.6,1.6l4.8,11.7l4.9-10.7c0.5-1.2,0.8-1.9,0.8-2.1
	c0-0.5-0.8-0.7-2.6-0.7v-1.2h2.1c1.2,0,2.5-0.1,3.8-0.1v1.2c-0.9,0-1.6,0.2-2.1,1l-9.1,19.4c-3.4,7.3-5.2,9.2-7.2,9.2
	c-1.1,0-1.6-0.8-1.6-1.7c0-1.4,1.2-2,2.8-2c0.6,0,1.2,0.1,1.8,0.2c1.4-1.9,3.8-7.1,4.7-9.1l-7.2-15.9c-0.4-0.9-0.6-1-2.1-1.1v-1.2
	H197.9z"/>
<path class="st0" d="M212.2,15.9c0.7-0.4,4.4-2.5,4.4-3.7c0-0.5-1.1-0.7-1.8-0.9c-1-0.3-1.9-1-1.9-1.8c0-0.6,0.7-1.2,1.8-1.2
	c1.6,0,3.7,1,3.7,2.8c0,2.6-3.8,4.5-5.7,5.4L212.2,15.9z"/>
<path class="st0" d="M215.3,32.5h1.2c0.5,2.8,2.3,4.7,5,4.7c1.6,0,3.2-1.2,3.2-3.5c0-4.6-8.8-4.1-8.8-10.3c0-2.6,2.1-4.8,5.6-4.8
	c1.4,0,2.8,0.4,3.5,0.4c0.7,0,1.3-0.3,1.8-0.4l0.1,5h-1.2c-0.3-2.1-1.5-4.2-3.9-4.2c-2,0-3.2,1.2-3.2,3.1c0,4.2,8.8,3.8,8.8,9.8
	c0,3.1-2.1,5.6-6.4,5.6c-0.6,0-1.3-0.2-2-0.3c-0.6-0.1-1.3-0.3-1.8-0.3c-0.7,0-1.1,0.1-1.8,0.2L215.3,32.5z"/>
<rect x="59" y="44.5" class="st0" width="125.6" height="1"/>
<rect x="201.2" y="44.5" class="st0" width="26.4" height="1"/>
<g>
	<path class="st1" d="M60.7,53.1h0.8c0.8,0,1.4,0.4,1.4,1.2c0,1-0.8,1.3-1.8,1.3h-0.4V53.1z M58.9,53.1c0.5,0,0.9,0.1,0.9,0.3v5.1
		c0,0.2-0.4,0.3-0.9,0.3v0.2c0.5,0,0.9,0,1.4,0c0.5,0,0.9,0,1.4,0v-0.2c-0.5,0-0.9-0.1-0.9-0.3v-2.6h0.6c1,0,1.5,0.2,1.5,1.6
		c0,1.1,0.3,1.5,1.2,1.5h0.5v-0.2c-0.5,0-0.7-0.2-0.8-0.9c-0.1-1.6-0.5-2-1.5-2.2v0c0.8-0.1,1.4-0.6,1.4-1.5c0-0.9-0.6-1.4-1.7-1.4
		c-0.3,0-0.5,0-0.8,0c-0.3,0-0.5,0-0.8,0c-0.3,0-0.5,0-0.8,0c-0.2,0-0.5,0-0.7-0.1V53.1z"/>
	<path class="st1" d="M72,59.1c-1.3-0.1-2.6-0.1-3.9-0.1c-0.5,0-1,0.1-1.5,0.1v-0.2c0.5,0,0.9-0.1,0.9-0.3v-5.1
		c0-0.3-0.4-0.3-0.9-0.3v-0.2c0.2,0,0.4,0,0.6,0c0.3,0,0.6,0,1.1,0c1.2,0,2,0,2.6-0.1c0.5,0,0.8-0.1,0.8-0.1c0.1,0,0.2,0,0.2,0.2
		c0,0.5,0,1,0,1.4h-0.3c-0.1-0.8-0.5-1.2-1.4-1.2h-1.7v2.6H69c0.9,0,1-0.1,1.1-1.1h0.3c0,0.4-0.1,1-0.1,1.6c0,0.2,0,0.6,0,0.9h-0.3
		c0-0.9-0.2-1.1-1-1.1h-0.6v2.3c0,0.3,0.2,0.5,0.5,0.5h1.6c0.6,0,0.9-0.3,1.1-1.5h0.3L72,59.1z"/>
	<path class="st1" d="M78.6,56.9c0.5,0,0.9,0,1.4,0c0.3,0,0.6,0,1,0v0.3c-0.5,0-0.6,0.1-0.6,0.3v0.9c-0.9,0.3-1.5,0.8-2.5,0.8
		c-1.9,0-3.2-1.5-3.2-3.2c0-1.8,1.4-3.2,3.2-3.2c1.3,0,1.6,0.5,2,0.5c0.1,0,0.3-0.1,0.4-0.2l0.2,0c0,0.4,0,0.7,0,1.1
		c0,0.3,0,0.5,0,0.8h-0.2C80,53.9,79.4,53,78.1,53c-1.5,0-2.3,1.2-2.3,2.8c0,1.9,0.8,3.1,2.4,3.1c0.8,0,1.4-0.4,1.4-0.7v-0.8
		c0-0.2-0.2-0.3-0.9-0.3L78.6,56.9z"/>
	<path class="st1" d="M83.2,52.9c0.3,0,0.8,0.1,1.4,0.1c0.6,0,1-0.1,1.4-0.1v0.2c-0.5,0-0.9,0.1-0.9,0.3v5.1c0,0.3,0.4,0.3,0.9,0.3
		l0,0.2c-0.3,0-0.8-0.1-1.4-0.1c-0.6,0-1.1,0.1-1.4,0.1v-0.2c0.6,0,1-0.1,1-0.3v-5.1c0-0.3-0.4-0.3-0.9-0.3V52.9z"/>
	<path class="st1" d="M89.3,56c0-1.9,0.8-3,2.1-3c1.3,0,2.1,1.1,2.1,3c0,1.9-0.8,3-2.1,3C90,59,89.3,57.9,89.3,56z M88.2,56
		c0,1.6,1.1,3.2,3.1,3.2c2,0,3.1-1.6,3.1-3.2c0-1.6-1.1-3.2-3.1-3.2C89.4,52.8,88.2,54.4,88.2,56z"/>
	<path class="st1" d="M101.9,59.1L98,53.9h0v4.3c0,0.5,0,0.6,0.8,0.6v0.2h-1.1c-0.3,0-0.5,0-0.6,0c-0.1,0-0.2,0-0.2,0v-0.3
		c0.8-0.1,0.9-0.1,0.9-1V54c0-0.5-0.6-0.9-0.9-0.9v-0.2c0.2,0,1.1,0.1,1.5,0.1l3.6,4.9h0v-3.7c0-0.9,0-0.9-0.9-1v-0.2h0.9
		c0.3,0,0.5,0,0.6,0c0.2,0,0.3,0,0.4,0v0.3c-0.6,0.1-0.8,0.1-0.8,0.7v5.3H101.9z"/>
	<path class="st1" d="M108.5,56.5l-1.5,0c-0.1,0-0.1,0-0.1-0.1c0-0.1,0-0.1,0-0.2l0.7-1.9h0L108.5,56.5z M108.6,56.7l0.6,1.7
		c0.1,0.2,0.1,0.2,0.1,0.2c0,0.1-0.3,0.2-0.7,0.2v0.2c0.1,0,0.5-0.1,1.2-0.1c0.7,0,1.1,0.1,1.2,0.1v-0.2c-0.5,0-0.7-0.1-0.8-0.5
		l-2.1-5.6H108l-2.1,5.6c-0.1,0.3-0.2,0.5-0.8,0.5v0.2c0.2,0,0.5-0.1,0.8-0.1c0.4,0,0.8,0.1,1,0.1v-0.2c-0.7-0.1-0.7-0.2-0.7-0.3
		c0-0.1,0-0.1,0.1-0.3l0.5-1.4c0-0.1,0.1-0.2,0.4-0.2H108.6z"/>
	<path class="st1" d="M113,52.9c0.3,0,0.8,0.1,1.4,0.1c0.6,0,1.1-0.1,1.4-0.1v0.2c-0.6,0-1,0.1-1,0.3v4.8c0,0.3,0.2,0.5,0.5,0.5h1.3
		c1.1,0,1.2-0.2,1.5-1.6h0.3c0,0.3-0.1,1.6-0.1,1.9c-0.5,0-0.9,0-1.4,0c-0.4,0-0.9,0-1.2,0h-0.8c-0.5,0-1,0-1.3,0
		c-0.3,0-0.5,0-0.6,0v-0.2c0.5,0,0.9-0.1,0.9-0.3v-5.1c0-0.3-0.4-0.3-0.9-0.3V52.9z"/>
	<path class="st1" d="M131,58.3c0,0.5,0.1,0.5,0.7,0.6v0.2h-1.5c-0.4,0-0.6,0-0.7,0c-0.1,0-0.1,0-0.2,0v-0.2l0.5-0.1
		c0.1,0,0.2-0.6,0.2-1V54c0-0.1,0-0.1-0.1-0.1c0,0,0,0-0.1,0l-2.1,5.1h-0.1l-2.3-4.8h0V58c0,0.3,0,0.7,0.1,0.7l0.7,0.1v0.3
		c-0.2,0-0.5,0-0.9,0c-0.4,0-0.6,0-0.7,0c-0.1,0-0.2,0-0.2,0v-0.3c0.6,0,0.8-0.2,0.8-0.8v-4c0-0.6-0.2-0.9-0.8-0.9v-0.2
		c0.2,0.1,0.5,0.1,0.8,0.1c0.3,0,0.4,0,0.7,0l2.2,4.8l2.1-4.8c0.1,0,0.2,0,0.2,0c0.6,0,1-0.1,1.3-0.1v0.3c-0.5,0-0.7,0.1-0.7,0.4
		V58.3z"/>
	<path class="st1" d="M139.7,59.1c-1.3-0.1-2.6-0.1-3.9-0.1c-0.5,0-1,0.1-1.5,0.1v-0.2c0.5,0,0.9-0.1,0.9-0.3v-5.1
		c0-0.3-0.4-0.3-0.9-0.3v-0.2c0.2,0,0.4,0,0.6,0c0.3,0,0.6,0,1.1,0c1.2,0,2,0,2.6-0.1c0.5,0,0.8-0.1,0.8-0.1c0.1,0,0.2,0,0.2,0.2
		c0,0.5,0,1,0,1.4h-0.3c-0.1-0.8-0.5-1.2-1.4-1.2h-1.7v2.6h0.5c0.9,0,1-0.1,1.1-1.1h0.3c0,0.4-0.1,1-0.1,1.6c0,0.2,0,0.6,0,0.9h-0.3
		c0-0.9-0.2-1.1-1-1.1h-0.6v2.3c0,0.3,0.2,0.5,0.5,0.5h1.6c0.6,0,0.9-0.3,1.1-1.5h0.3L139.7,59.1z"/>
	<path class="st1" d="M144.2,53.1c0.2,0,0.4,0,0.7,0c1.9,0,3,1,3,2.7c0,1.9-1,3-2.8,3c-0.3,0-0.8,0-1,0V53.1z M142.4,53.1
		c0.9,0.1,0.9,0.1,0.9,0.6v4.8c0,0.3-0.1,0.3-0.9,0.4v0.3c0.3,0,0.6-0.1,1.3-0.1c0.3,0,0.6,0,0.9,0c0.3,0,0.5,0,0.8,0
		c2.7,0,3.7-1.5,3.7-3.3c0-1.6-1.1-2.9-3.3-2.9c-0.3,0-0.6,0-0.9,0c-0.3,0-0.6,0-0.9,0c-0.3,0-0.7,0-0.9,0c-0.3,0-0.5,0-0.6,0V53.1z
		"/>
	<path class="st1" d="M151.4,52.9c0.3,0,0.8,0.1,1.4,0.1c0.6,0,1-0.1,1.4-0.1v0.2c-0.5,0-0.9,0.1-0.9,0.3v5.1c0,0.3,0.4,0.3,0.9,0.3
		v0.2c-0.3,0-0.8-0.1-1.4-0.1s-1.1,0.1-1.4,0.1v-0.2c0.6,0,1-0.1,1-0.3v-5.1c0-0.3-0.4-0.3-0.9-0.3V52.9z"/>
	<path class="st1" d="M161.8,55c-0.2-1.3-0.9-1.9-2.2-1.9c-1.7,0-2.2,1.6-2.2,3.1c0,1.4,0.7,2.9,2.3,2.9c1.4,0,1.9-0.9,2.2-1.9
		l0.2,0c-0.1,0.5-0.2,1.1-0.2,1.7c-0.5,0-1.1,0.4-2.2,0.4c-2.1,0-3.2-1.5-3.2-3.2c0-1.8,1.4-3.2,3.1-3.2c1.4,0,1.6,0.5,2.1,0.5
		c0.1,0,0.2-0.1,0.3-0.1l0.2,0c0,0.3,0,0.6,0,0.9c0,0.3,0,0.6,0,0.9H161.8z"/>
	<path class="st1" d="M167.5,56.5l-1.5,0c-0.1,0-0.1,0-0.1-0.1c0-0.1,0-0.1,0-0.2l0.7-1.9h0L167.5,56.5z M167.6,56.7l0.6,1.7
		c0.1,0.2,0.1,0.2,0.1,0.2c0,0.1-0.3,0.2-0.7,0.2v0.2c0.1,0,0.5-0.1,1.2-0.1c0.7,0,1.1,0.1,1.2,0.1v-0.2c-0.5,0-0.7-0.1-0.8-0.5
		l-2.1-5.6H167l-2.1,5.6c-0.1,0.3-0.2,0.5-0.8,0.5v0.2c0.2,0,0.5-0.1,0.8-0.1c0.4,0,0.8,0.1,1,0.1v-0.2c-0.7-0.1-0.7-0.2-0.7-0.3
		c0-0.1,0-0.1,0.1-0.3l0.5-1.4c0-0.1,0.1-0.2,0.4-0.2H167.6z"/>
	<path class="st1" d="M172,52.9c0.3,0,0.8,0.1,1.4,0.1c0.6,0,1.1-0.1,1.4-0.1v0.2c-0.6,0-1,0.1-1,0.3v4.8c0,0.3,0.2,0.5,0.5,0.5h1.3
		c1.1,0,1.2-0.2,1.5-1.6h0.3c0,0.3-0.1,1.6-0.1,1.9c-0.5,0-0.9,0-1.4,0c-0.4,0-0.9,0-1.2,0h-0.8c-0.5,0-1,0-1.3,0
		c-0.3,0-0.5,0-0.6,0v-0.2c0.5,0,0.9-0.1,0.9-0.3v-5.1c0-0.3-0.4-0.3-0.9-0.3V52.9z"/>
	<path class="st1" d="M188.6,55c-0.2-1.3-0.9-1.9-2.2-1.9c-1.7,0-2.2,1.6-2.2,3.1c0,1.4,0.7,2.9,2.3,2.9c1.4,0,1.9-0.9,2.2-1.9
		l0.2,0c-0.1,0.5-0.2,1.1-0.2,1.7c-0.5,0-1.1,0.4-2.2,0.4c-2.1,0-3.2-1.5-3.2-3.2c0-1.8,1.4-3.2,3.1-3.2c1.4,0,1.6,0.5,2.1,0.5
		c0.1,0,0.2-0.1,0.3-0.1l0.2,0c0,0.3,0,0.6,0,0.9c0,0.3,0,0.6,0,0.9H188.6z"/>
	<path class="st1" d="M196.6,59.1c-1.3-0.1-2.6-0.1-3.9-0.1c-0.5,0-1,0.1-1.5,0.1v-0.2c0.5,0,0.9-0.1,0.9-0.3v-5.1
		c0-0.3-0.4-0.3-0.9-0.3v-0.2c0.2,0,0.4,0,0.6,0c0.3,0,0.6,0,1.1,0c1.2,0,2,0,2.6-0.1c0.5,0,0.8-0.1,0.8-0.1c0.1,0,0.2,0,0.2,0.2
		c0,0.5,0,1,0,1.4h-0.3c-0.1-0.8-0.5-1.2-1.4-1.2h-1.7v2.6h0.5c0.9,0,1-0.1,1.1-1.1h0.3c0,0.4-0.1,1-0.1,1.6c0,0.2,0,0.6,0,0.9h-0.3
		c0-0.9-0.2-1.1-1-1.1h-0.6v2.3c0,0.3,0.2,0.5,0.5,0.5h1.6c0.6,0,0.9-0.3,1.1-1.5h0.3L196.6,59.1z"/>
	<path class="st1" d="M204.4,59.1l-3.9-5.2h0v4.3c0,0.5,0,0.6,0.8,0.6v0.2h-1.1c-0.3,0-0.5,0-0.6,0c-0.1,0-0.2,0-0.2,0v-0.3
		c0.8-0.1,0.9-0.1,0.9-1V54c0-0.5-0.6-0.9-0.9-0.9v-0.2c0.2,0,1.1,0.1,1.5,0.1l3.6,4.9h0v-3.7c0-0.9,0-0.9-0.9-1v-0.2h0.9
		c0.3,0,0.5,0,0.6,0c0.2,0,0.3,0,0.4,0v0.3c-0.6,0.1-0.8,0.1-0.8,0.7v5.3H204.4z"/>
	<path class="st1" d="M207.7,54.5c0-0.4,0.1-1.5,0.1-1.6c0.9,0,1.8,0.1,2.8,0.1c0.9,0,1.8-0.1,2.8-0.1c0,0.3,0,1.1,0,1.5h-0.3
		c-0.2-0.9-0.4-1.2-2-1.2v5.3c0,0.3,0.4,0.3,1,0.3v0.2c-0.5,0-0.9-0.1-1.4-0.1c-0.5,0-1,0.1-1.4,0.1v-0.2c0.5,0,0.9-0.1,0.9-0.3
		v-5.3c-1.6,0-1.9,0.3-2,1.3H207.7z"/>
	<path class="st1" d="M220.6,59.1c-1.3-0.1-2.6-0.1-3.9-0.1c-0.5,0-1,0.1-1.5,0.1v-0.2c0.5,0,0.9-0.1,0.9-0.3v-5.1
		c0-0.3-0.4-0.3-0.9-0.3v-0.2c0.2,0,0.4,0,0.6,0c0.3,0,0.6,0,1.1,0c1.2,0,2,0,2.6-0.1c0.5,0,0.8-0.1,0.8-0.1c0.1,0,0.2,0,0.2,0.2
		c0,0.5,0,1,0,1.4h-0.3c-0.1-0.8-0.5-1.2-1.4-1.2h-1.7v2.6h0.5c0.9,0,1-0.1,1.1-1.1h0.3c0,0.4-0.1,1-0.1,1.6c0,0.2,0,0.6,0,0.9h-0.3
		c0-0.9-0.2-1.1-1-1.1h-0.6v2.3c0,0.3,0.2,0.5,0.5,0.5h1.6c0.6,0,0.9-0.3,1.1-1.5h0.3L220.6,59.1z"/>
	<path class="st1" d="M225.2,53.1h0.8c0.8,0,1.4,0.4,1.4,1.2c0,1-0.8,1.3-1.8,1.3h-0.4V53.1z M223.3,53.1c0.5,0,0.9,0.1,0.9,0.3v5.1
		c0,0.2-0.4,0.3-0.9,0.3v0.2c0.5,0,0.9,0,1.4,0c0.5,0,0.9,0,1.4,0v-0.2c-0.5,0-0.9-0.1-0.9-0.3v-2.6h0.6c1,0,1.5,0.2,1.5,1.6
		c0,1.1,0.3,1.5,1.2,1.5h0.5v-0.2c-0.5,0-0.7-0.2-0.8-0.9c-0.1-1.6-0.5-2-1.5-2.2v0c0.8-0.1,1.4-0.6,1.4-1.5c0-0.9-0.6-1.4-1.7-1.4
		c-0.3,0-0.5,0-0.8,0c-0.3,0-0.5,0-0.8,0c-0.3,0-0.5,0-0.8,0c-0.2,0-0.5,0-0.7-0.1V53.1z"/>
</g>
<path class="st2" d="M46.2,53.7c0,3.1-2.6,5.6-5.9,5.6H13.5c-3.3,0-5.9-2.5-5.9-5.6V12.5c0-3.1,2.6-5.6,5.9-5.6h26.8
	c3.3,0,5.9,2.5,5.9,5.6V53.7z"/>
<path class="st3" d="M44.8,52.5c0,2.9-2.5,5.2-5.5,5.2h-25c-3,0-5.5-2.3-5.5-5.2V14.1c0-2.9,2.5-5.2,5.5-5.2h25c3,0,5.5,2.3,5.5,5.2
	V52.5z"/>
<path class="st4" d="M33.2,30.7c0.4-0.4,1-1.3,1.5-2.5l-5.5-0.3l0.1,5c0,0,0,0,0,0c0.5-0.1,1.2-0.3,1.9-0.7
	C31.9,31.9,32.6,31.2,33.2,30.7z"/>
<path class="st4" d="M19.9,23.4l5.6,0.2l-0.3-6.3C22.5,18.2,20.5,20.5,19.9,23.4z"/>
<path class="st4" d="M30.1,17.6c-0.1-0.1-0.5-0.1-0.8-0.2l-0.3,6.4l6.1-0.1c-0.4-1.8-1.4-3.4-1.9-3.9C32.4,19,30.9,18,30.1,17.6z"/>
<path class="st4" d="M25.4,34.3L25.4,34.3c-0.3-0.1-0.6-0.2-0.9-0.3c0.1,0,0.1,0,0.2,0.1C24.9,34.2,25.2,34.2,25.4,34.3z"/>
<path class="st4" d="M20.4,28c0.9,2.2,2.8,3.9,5.1,4.6l0.2-4.7L20.4,28z"/>
<path class="st5" d="M29.2,34.9c0.2,0,0.3-0.1,0.5-0.1c0.9-0.3,1.8-0.7,2.6-1.2c0.4-0.3,0.4-0.3,0.1-0.2c-1,0.6-2.1,0.9-3.3,1.1
	L29.2,34.9z"/>
<path class="st5" d="M29.3,16.8l0,0.5c0,0-0.3,0.1-0.1,0.3c0.1,0.1-0.4-0.1-0.1,0c0.3,0.1,1.5,0.5,1.6,0.6c0.9,0.4,1.9,1.1,2.5,1.7
	c1.4,1.5,1.9,3.7,1.9,3.7l1.1,0C35.7,20.2,32.8,17.4,29.3,16.8z"/>
<path class="st5" d="M18.2,23.3c0.3-2.8,1.8-5.2,3.9-6.8c-0.4,0.2-0.8,0.5-1.2,0.8c-0.1,0-0.6,0.4-0.7,0.6c-0.3,0.3-0.6,0.6-0.8,0.9
	c-0.8,1-1.4,2.1-1.8,3.3c-0.2,0.4-0.3,0.8-0.3,1.1L18.2,23.3z"/>
<path class="st5" d="M26.6,34.5c-0.4-0.1-0.8-0.1-1.2-0.2l0,0c-0.3-0.1-0.5-0.1-0.8-0.2c-0.1,0-0.1,0-0.2-0.1
	c-3.1-1.2-5.5-4-6.1-7.4L1.2,26.8l0.1-4l-0.1,0l-1.2,1.5l-0.1,4L17.3,28c0.4,1.5,1.1,3,2.1,4.1c0.5,0.5,1.5,1.4,2.6,2
	c1,0.6,2,0.8,2.2,0.9c0.4,0.1,0.7,0.4,1.1,0.4c0,0,0,0,0.1,0L23.9,76l4.5,0l1.3-1.5l0-0.1l-4.5,0.1L26.6,34.5z"/>
<path class="st5" d="M25.5,23.6l1.3,0l-0.3-6.7c-0.5,0.1-0.9,0.2-1.3,0.4L25.5,23.6z"/>
<path class="st5" d="M36.9,28.3L52.3,29l1.3-1.4l0-0.1l-16.2-0.8C37.2,27.3,37.1,27.8,36.9,28.3z"/>
<path class="st5" d="M25.7,0.2L25.7,0.2l-1.2,1.4L25.1,15c0.4-0.1,0.9-0.2,1.3-0.3L25.7,0.2z"/>
<path class="st5" d="M26.9,26.4L20,26.5c0.1,0.5,0.3,1,0.5,1.4l5.2-0.1l-0.2,4.7c0.4,0.1,0.8,0.2,1.2,0.3L26.9,26.4z"/>
<path class="st5" d="M36,26.7l-6.9-0.3l0,1.5l5.5,0.3c0,0-1,1.8-2.2,2.9c-1.4,1.2-3.2,1.7-3.2,1.7C32.6,32.4,35.3,29.9,36,26.7z"/>
<path class="st0" d="M53.6,23.5l-16.1,0.2c-0.4-4.6-3.8-8.3-8.1-9L30.1,0l-4.4,0.1l0,0.1l0.8,14.5c-0.4,0.1-0.9,0.2-1.3,0.3
	c-1.1,0.3-2.1,0.9-3,1.5c-2.1,1.6-3.5,4-3.9,6.8l-1,0L1.4,22.8l0,0l-0.1,4l17.1-0.3c0.7,3.4,3,6.2,6.1,7.4c0.3,0.1,0.6,0.2,0.9,0.3
	c0.4,0.1,0.8,0.2,1.2,0.2l-1.5,40.1l4.5-0.1l0,0l-0.5-39.6l0-0.4c1.2-0.2,2.3-0.6,3.3-1.1c2-1.1,3.5-2.9,4.4-5.1
	c0.2-0.5,0.3-1,0.4-1.5l16.2,0.8l0.1,0V23.5z M26.9,23.6l-1.3,0l-5.6-0.2c0.5-2.8,2.6-5.2,5.3-6.1c0.4-0.2,0.9-0.3,1.3-0.4
	L26.9,23.6z M28.9,23.8l0.3-6.4l0-0.5c3.6,0.5,6.4,3.3,6.9,6.9l-1.1,0L28.9,23.8z M29.2,32.9C29.2,32.9,29.2,32.9,29.2,32.9
	l-0.1-4.9l0-1.5l6.9,0.3C35.3,29.9,32.6,32.4,29.2,32.9z M20.4,28c-0.2-0.5-0.3-0.9-0.5-1.4l6.9-0.1l-0.2,6.4
	c-0.4-0.1-0.8-0.2-1.2-0.3C23.2,31.8,21.3,30.1,20.4,28z"/>
<g>
	<path class="st0" d="M64.9,86.8c-0.4,1.8-1.2,3-3.2,3c-2.6,0-3.5-2.8-3.5-6.2c0-3.5,1-6.2,3.6-6.2c2,0,2.8,1.2,3.1,2.9l-1.7,0.4
		c-0.2-1.1-0.5-1.7-1.5-1.7c-1.5,0-1.8,2.4-1.8,4.5c0,2.2,0.5,4.5,1.9,4.5c0.8,0,1.2-0.5,1.5-1.8L64.9,86.8z"/>
	<path class="st0" d="M73.7,89.6h-1.8l-0.7-3.2h-2.6l-0.7,3.2h-1.8l2.9-12h1.7L73.7,89.6z M70.8,84.8l-0.4-2
		c-0.2-0.8-0.4-2.2-0.5-2.6c-0.1,0.4-0.3,1.8-0.5,2.6l-0.4,2H70.8z"/>
	<path class="st0" d="M82.1,89.6h-1.4l-2.9-6.4c-0.2-0.5-0.7-1.6-0.8-2c0,0.4,0,1.8,0,2.4v6h-1.6v-12H77l2.6,5.7
		c0.2,0.5,0.7,1.6,0.8,2c0-0.4,0-1.8,0-2.4v-5.3h1.6V89.6z"/>
	<path class="st0" d="M90.7,86.8c-0.4,1.8-1.2,3-3.2,3C85,89.8,84,87,84,83.6c0-3.5,1-6.2,3.6-6.2c2,0,2.8,1.2,3.1,2.9L89,80.8
		c-0.2-1.1-0.5-1.7-1.5-1.7c-1.5,0-1.8,2.4-1.8,4.5c0,2.2,0.5,4.5,1.9,4.5c0.8,0,1.2-0.5,1.5-1.8L90.7,86.8z"/>
	<path class="st0" d="M98.5,89.6h-5.9v-12h5.6v1.6h-4v3.2h2.6v1.6h-2.6V88h4.2V89.6z"/>
	<path class="st0" d="M107,89.6h-1.9l-1.8-5.2H102v5.2h-1.7v-12h3.4c1.7,0,3.3,0.9,3.3,3.3c0,1.7-0.8,2.7-1.9,3.2L107,89.6z
		 M105.3,81c0-1.2-0.7-1.7-1.7-1.7H102v3.5h1.6C104.6,82.8,105.3,82.2,105.3,81z"/>
	<path class="st0" d="M119.1,86.8c-0.4,1.8-1.2,3-3.2,3c-2.6,0-3.5-2.8-3.5-6.2c0-3.5,1-6.2,3.6-6.2c2,0,2.8,1.2,3.1,2.9l-1.7,0.4
		c-0.2-1.1-0.5-1.7-1.5-1.7c-1.5,0-1.8,2.4-1.8,4.5c0,2.2,0.5,4.5,1.9,4.5c0.8,0,1.2-0.5,1.5-1.8L119.1,86.8z"/>
	<path class="st0" d="M126.9,89.6H121v-12h5.6v1.6h-4v3.2h2.6v1.6h-2.6V88h4.2V89.6z"/>
	<path class="st0" d="M135.4,89.6H134l-2.9-6.4c-0.2-0.5-0.7-1.6-0.8-2c0,0.4,0,1.8,0,2.4v6h-1.6v-12h1.7l2.6,5.7
		c0.2,0.5,0.7,1.6,0.8,2c0-0.4,0-1.8,0-2.4v-5.3h1.6V89.6z"/>
	<path class="st0" d="M143.2,79.3H141v10.3h-1.7V79.3h-2.2v-1.6h6.1V79.3z"/>
	<path class="st0" d="M150.8,89.6H145v-12h5.6v1.6h-4v3.2h2.6v1.6h-2.6V88h4.2V89.6z"/>
	<path class="st0" d="M159.4,89.6h-1.9l-1.8-5.2h-1.4v5.2h-1.7v-12h3.4c1.7,0,3.3,0.9,3.3,3.3c0,1.7-0.8,2.7-1.9,3.2L159.4,89.6z
		 M157.6,81c0-1.2-0.7-1.7-1.7-1.7h-1.6v3.5h1.6C156.9,82.8,157.6,82.2,157.6,81z"/>
</g>
</svg>
