<?xml version="1.0" encoding="utf-8"?>
<!-- Generator: Adobe Illustrator 25.0.0, SVG Export Plug-In . SVG Version: 6.00 Build 0)  -->
<svg version="1.1" id="Layer_1" xmlns="http://www.w3.org/2000/svg" xmlns:xlink="http://www.w3.org/1999/xlink" x="0px" y="0px"
	 viewBox="0 0 29.8 31.3" style="enable-background:new 0 0 29.8 31.3;" xml:space="preserve">
<style type="text/css">
	.st0{fill:#003A70;}
</style>
<path class="st0" d="M0,15.6c0,0.7,0.3,1.3,0.7,1.8l13.1,13.1c0.5,0.5,1.1,0.7,1.8,0.7c0.7,0,1.3-0.3,1.8-0.7L19,29
	c0.5-0.5,0.7-1.1,0.7-1.8s-0.3-1.3-0.7-1.8l-5.9-5.9h14.1c1.4,0,2.6-1.2,2.6-2.6v-2.6c0-1.4-1.2-2.6-2.6-2.6H13.1L19,5.9
	c0.5-0.5,0.7-1.1,0.7-1.8c0-0.7-0.3-1.3-0.7-1.8l-1.5-1.5C17,0.3,16.3,0,15.6,0c-0.7,0-1.3,0.3-1.8,0.8L0.7,13.8
	C0.3,14.3,0,15,0,15.6z"/>
</svg>
