<?xml version="1.0" encoding="utf-8"?>
<!-- Generator: Adobe Illustrator 25.0.0, SVG Export Plug-In . SVG Version: 6.00 Build 0)  -->
<svg version="1.1" id="Layer_1" xmlns="http://www.w3.org/2000/svg" xmlns:xlink="http://www.w3.org/1999/xlink" x="0px" y="0px"
	 viewBox="0 0 64.1 40" style="enable-background:new 0 0 64.1 40;" xml:space="preserve">
<style type="text/css">
	.st0{fill-rule:evenodd;clip-rule:evenodd;fill:#CD4A2D;}
</style>
<path class="st0" d="M0,25.8c0.5,12.4,15.7,18.8,24.9,10.3c8.9-8.2,4.4-23.5-7.6-25.5c0.2-4.4,1.9-8.3,4.4-10.7
	C8.7,0.8-0.3,13.4,0,25.8C0,26.3,0,25.8,0,25.8"/>
<path class="st0" d="M34.6,25.8c0.5,12.4,15.7,18.8,24.9,10.3c8.9-8.2,4.4-23.5-7.6-25.5c0.2-4.4,1.9-8.3,4.4-10.7
	C43.2,0.8,34.2,13.4,34.6,25.8C34.6,26.3,34.6,25.8,34.6,25.8"/>
</svg>
