<?xml version="1.0" encoding="utf-8"?>
<!-- Generator: Adobe Illustrator 25.0.0, SVG Export Plug-In . SVG Version: 6.00 Build 0)  -->
<svg version="1.1" id="Layer_1" xmlns="http://www.w3.org/2000/svg" xmlns:xlink="http://www.w3.org/1999/xlink" x="0px" y="0px"
	 viewBox="0 0 71.4 51.4" style="enable-background:new 0 0 71.4 51.4;" xml:space="preserve">
<style type="text/css">
	.st0{fill:#003A70;}
	.st1{fill:none;stroke:#FFFFFF;stroke-width:1.4;stroke-miterlimit:10;}
	.st2{fill:#FFFFFF;stroke:#FFFFFF;stroke-width:1.4;stroke-miterlimit:10;}
</style>
<path class="st0" d="M69.4,42.7c-0.8,3.8-3.9,6.6-7.5,7.1c-8.7,1-17.5,1-26.2,1s-17.5,0-26.2-1c-3.7-0.4-6.7-3.2-7.6-7.1
	c-1.2-5.4-1.2-11.4-1.2-17s0-11.5,1.2-17c0.9-3.8,3.9-6.6,7.5-7.1c8.7-1,17.5-1,26.2-1s17.5,0,26.2,1c3.7,0.4,6.7,3.2,7.6,7.1
	c1.2,5.4,1.2,11.4,1.2,17S70.7,37.2,69.4,42.7z M49.5,23.6l-20-12.5c-0.8-0.5-1.8-0.5-2.5-0.1s-1.3,1.3-1.3,2.2v25
	c0,0.9,0.5,1.8,1.3,2.2c0.4,0.2,0.8,0.3,1.2,0.3c0.5,0,0.9-0.1,1.3-0.4l20-12.5c0.7-0.4,1.2-1.2,1.2-2.1S50.3,24,49.5,23.6z"/>
<path class="st1" d="M69.4,42.7c-0.8,3.8-3.9,6.6-7.5,7.1c-8.7,1-17.5,1-26.2,1s-17.5,0-26.2-1c-3.7-0.4-6.7-3.2-7.6-7.1
	c-1.2-5.4-1.2-11.4-1.2-17s0-11.5,1.2-17c0.9-3.8,3.9-6.6,7.5-7.1c8.7-1,17.5-1,26.2-1s17.5,0,26.2,1c3.7,0.4,6.7,3.2,7.6,7.1
	c1.2,5.4,1.2,11.4,1.2,17S70.7,37.2,69.4,42.7z"/>
<path class="st2" d="M49.5,23.6l-20-12.5c-0.8-0.5-1.8-0.5-2.5-0.1s-1.3,1.3-1.3,2.2v25c0,0.9,0.5,1.8,1.3,2.2
	c0.4,0.2,0.8,0.3,1.2,0.3c0.5,0,0.9-0.1,1.3-0.4l20-12.5c0.7-0.4,1.2-1.2,1.2-2.1S50.3,24,49.5,23.6z"/>
</svg>
